Bil ,Perhubungan 
,
1 ,Tel:03-88880970 / 0971
,Fax:03-88880019
,Email: oc-putra.bomba@1govuc.gov.my 
2 ,Tel:07-2243444
,Fax:07-2244344
,Email: bbp-jhrbahru.bomba@1govuc.gov.my 
3 ,Tel:07-3511444
,Fax:07-3515344
,Email: bbp-jhrjaya.bomba@1govuc.gov.my 
4 ,Tel:07-2513444 / 2513944
,Fax:07-2532985
,Email: bbp-psrgudang.bomba@1govuc.gov.my 
5 ,Tel:07-6634444
,Fax:07-6621121
,Email: bbp-kulai.bomba@1govuc.gov.my
6 ,"Tel:076864444,076874444"
,Fax:07-6879877
,Email: bbp-pontian.bomba@1govuc.gov.my 
7 ,Tel:07-6994444
,Fax:07-6993345
,Email: bbp-pekannenas.bomba@1/govuc.gov.my 
8 ,"Tel:076864044, 076866044"
,Fax:076869044
,Email: bbp_pontianbaru.bomba@1govuc.gov.my 
9 ,Tel:07-5204144
,Fax:07-5205944
,Email: bbp-pulai.bomba@1govuc.gov.my 
10 ,Tel:07 - 590 8711
,Fax:07 - 590 8235
,Email: bbp-putrakulai.bomba@1govuc.gov.my 
11 ,Tel:07-3317524
,Fax:07-3317522
,Email: bbp-tebrau.bomba@1govuc.gov.my 
12 ,Tel:06-9555994
,Fax:06-9522994
,Email: bbp_muar.bomba@1govuc.gov.my 
13 ,Tel:07-9435844
,Fax:07-9435244
,Email: bbp-segamat.bomba@1govuc.gov.my 
14 ,Tel:07-9314444
,Fax:079313203
,Email: bbp-jlnabd.bomba@1govuc.gov.my 
15 ,Tel:06-9783444
,Fax:06-9788464
,Email: bbp-tangkak.bomba@1govuc.gov.my 
16 ,Tel:07-9254444
,Fax:07-9255433
,Email: bbp-labis.bomba@1govuc.gov.my
17 ,Tel:06-9762444
,Fax: 06-9763144
,Email: bbp-bktgambir.bomba@1govuc.gov.my 
18 ,Tel:07-7724444/7724450
,Fax:07-7717244
,Email: bbp-kluang.bomba@1govuc.gov.my 
19 ,Tel:07-4342444
,Fax:07-4331158
,Email: bbp-timahsari.bomba@1govuc.gov.my 
20 ,Tel:07-4338444
,Fax:07-4348675
,Email: bbp-jlnkhalid.bomba@1govuc.gov.my 
21 ,Tel:07-4674444
,Fax:07-4676844
,Email: bbpyong peng@bomba.gov.my 
22 ,Tel:07-4243444
,Fax:07-4244925
,Email: bbp-rengit.bomba@1govuc.gov.my 
23 ,Tel:07-7535444
,Fax:07-7536636
,Email: bbp-renggam.bomba@1govuc.gov.my 
24 ,Tel:077582206
,Fax:077581518
,Email: bbp-airhitam.bomba@1govuc.gov.my 
25 ,Tel:07-8831444
,Fax:07-8821644
,Email: bbp_kotatinggi@bomba.gov.my 
26 ,Tel:07-8224444
,Fax:07-8224055
,Email: bbp-penawar.bomba@1govuc.gov.my 
27 ,Tel:07-7994444
,Fax:07-7994944
,Email: bbp-mersing.bomba@1govuc.gov.my 
28 ,Tel:07-7945444
,Fax:07-7942946
,Email: bbp-endau.bomba@1govuc.gov.my 
29 ,Tel:07-7945444
,Fax:07-7942946
,Email: bbp-endau.bomba@1govuc.gov.my 
30 ,Tel:06-2838481 / 8482
,Fax:06-2849677/06-2838490
,Email: bbp-jkb.bomba@1govuc.gov.my 
31 ,Tel:06-2319134 / 2319135
,Fax:06-2322406
,Email: bombamel@bomba.gov.my 
32 ,Tel:06-2311315
,Fax:06-2311343
,Email: kwl-bkl@bomba.gov.my
33 ,Tel:06-5291444
,Fax:06-5293463
,Email:  kwl-jsn@bomba.gov.my
34 ,Tel:06-2631444
,Fax:06-2633942
,Email:  kwl-mlu@bomba.gov.my
35 ,Tel:06-3517994 / 7916
,Fax:06-3516994
,Email:  kwl-tgb@bomba.gov.my
36 ,Tel:06-5293736
,Fax:06-5292407
,Email: kwl-jsb@bomba.gov.my
37 ,Tel:06-5562444
,Fax:06-5566500
,Email: kwl-alg@bomba.gov.my
38,Tel:06-3842444
,Fax:06-3851807
,Email: kwl-mst@bomba.gov.my
39,Tel:06-2683101
,Fax:06-2683105
,Email: @bomba.gov.my
40,Tel:06-7677089 / 7624444
,Fax:06-7674444
,Email: bbp_seremban@bomba.gov.my
41,Tel:06-6013393
,Fax:06-6013464
,Email: bbp_seremban2@bomba.gov.my
42,Tel:06-6779202
,Fax:06-6784444
,Email: bbp_senawang@bomba.gov.my
43,Tel:06-7583198
,Fax:06-7586582
,Email: bbp_mantin@bomba.gov.my
44,Tel:06-7940051
,Fax:06-7940053
,Email: bbp_nilai@bomba.gov.my
45,Tel:06-6471444
,Fax:06-6463457
,Email: bbp_portdickson@bomba.gov.my
46,Tel:06-6621171
,Fax:06-6627701
,Email: bbp_telukkemang@bomba.gov.my
47,Tel:06-6851233
,Fax:06-6858609
,Email: bbp-rembau@bomba.gov.my 
48,Tel:06-4411333
,Fax:06-4418799
,Email: bbp_tampin@bomba.gov.my
49,Tel:07-9481333
,Fax:07-9485284
,Email: bbp_gemas@bomba.gov.my
50,Tel:06-4581484
,Fax:06-4582424
,Email: bbp_serijempol@bomba.gov.my
51,Tel:06 4541333
,Fax:06 4542061
,Email: bbp-bahau.bomba@1govuc.gov.my 
52,Tel:06-4811333
,Fax:06-4811055
,Email: bbp_kualapilah@bomba.gov.my
53,Tel:06-6136333
,Fax:06-6138692
,Email: bbp_jelebu@bomba.gov.my
54,Tel:06-4920060 / 4920068
,Fax:06-4920070
,Email: bbp-spgpertang.bomba@1govuc.gov.my 
55,Tel:03-55194444
,Fax:03-55134716/02324
,Email: bbp-shahalam.bomba@1govuc.gov.my 
56,Tel:03-78464211
,Fax:03-78472446
,Email: mfarid-hussin.bomba@1govuc.gov.my 
57,Tel:03-61575055 / 57
,Fax:03-61577871
,Email: sabri-deen.bomba@1govuc.gov.my 
58,Tel:03-77821994
,Fax: 03-77831994
,Email: bbp-penchala.bomba@1govuc.gov.my 
59,Tel:03-56349444/8444
,Fax:03-56314077
,Email: bbp-subang.bomba@1govuc.gov.my 
60,Tel:03-89416281/7636
,Fax:03-89416436
,Email: bbp-serikmbgn.bomba@1govuc.gov.my 
61,Tel:03-77294444
,Fax:03-77292341
,Email: bbp_damansara@bomba.gov.my 
62,Tel:03-79854444/5857
,Fax:03-79542513
,Email: bbp-pj.bomba@1govuc.gov.my 
63,Tel:03-80707879/60/34
,Fax:03-80707849
,Email: bbp-puchong.bomba@1govuc.gov.my 
64,Tel:03-92746253/92746250
,Fax:03-92746316
,Email: bbp-pandan.bomba@1govuc.gov.my 
65,Tel:03-42924444
,Fax:03-42961312
,Email: bbp-ampang.bomba@1govuc.gov.my 
66,Tel:03-89254444
,Fax:03-89262344
,Email: bbp-bangi.bomba@1govuc.gov.my 
67,Tel:03-87364444
,Fax:03-87361344
,Email: bbp_kajang@bomba.gov.my 
68,Tel:03-60783959
,Fax:tiada
,Email: bbp_semenyih@bomba.gov.my 
69,Tel:03-31684444/9764
,Fax:03-31655934
,Email: bbp-pelklang.bomba@1govuc.gov.my 
70,Tel:03-33714444/32160
,Fax:03-33731854
,Email: bbp-kotaraja.bomba@1govuc.gov.my 
71,Tel:03-33734444
,Fax:03-33738013
,Email: bbp-andalas@bomba.gov.my 
72,Tel:03-33424444
,Fax:03-33731854
,Email: bbp-sgpinang.bomba@1govuc.gov.my 
73,Tel:03-87874970/4975
,Fax:03-87874986
,Email: bbp-klia.bomba@1govuc.gov.my 
74,Tel:03-83184944
,Fax:03-83184944 / 03-83196997
,Email: izman-adnan.bomba@1govuc.gov.my 
75,Tel:03-31871444
,Fax:03-31815055
,Email: bbp_banting@bomba.gov.my 
76,Tel:03-31421333
,Fax:03-31421515
,Email: bbp_sepang@bomba.gov.my
77,Tel:03-32161444
,Fax:03-32164588
,Email: bbp-sabak.bomba@1govuc.gov.my 
78,Tel:03-32246434/912
,Fax:03-32244816
,Email: bbp-sgbesar.bomba@1govuc.gov.my 
79,Tel:03-32418075
,Fax:03-32417039
,Email: bbp-sekinchan.bomba@1govuc.gov.my 
80,Tel:03-32698444 / 4424
,Fax:03-32693448
,Email: bbp-tjgkarang.bomba@1govuc.gov.my 
81,Tel:03-32891444 / 7682
,Fax:03-32897751
,Email: bbp-kualasgor.bomba@1govuc.gov.my 
82,Tel:03-32719444
,Fax:03-32717395
,Email: bbp-bestari.bomba@1govuc.gov.my 
83,Tel:03-61365944/7944
,Fax:03-61387145
,Email: azrul-khairi.bomba@1govuc.gov.my 
84,Tel:03-60924444/16429
,Fax:03-60916434
,Email: bbp-rawang.bomba@1govuc.gov.my 
85,Tel:03-60641444 / 4597
,Fax:0360642661
,Email: bbp-kkb.bomba@1govuc.gov.my 
86,Tel:03-60352444
,Fax:03-60353040
,Email: bbp-arang.bomba@1govuc.gov.my 
87,Tel:03-92217222
,Fax:03-92226979
,Email: bbp_pusat@bomba.gov.my 
88,Tel:03-79848753
,Fax:03-79848753
,Email: bbp_tmndesa@bomba.gov.my
89,Tel:03-62574444
,Fax:03-62500344
,Email: bbp-jinjang.bomba@1govuc.gov.my 
90,Tel:03-61859639
,Fax:03-61851344
,Email: bbp_gombakselatan@bomba.gov.my
91,Tel:603-41073444
,Fax:603-41089244
,Email: bbp-wm.bomba@1govuc.gov.my 
92,Tel:03-40235544
,Fax:03-40228444
,Email: bbp-setapak.bomba@bomba.gov.my
93,Tel:0340441994
,Fax:034043 1344
,Email: bbp-sentul.bomba@1govuc.gov.my 
94,Tel:03-42514863
,Fax:03-42514858
,Email: bbp_jelatek@bomba.gov.my 
95,Tel:03-26913703
,Fax:03-26984444
,Email: bbp_chowkit@bomba.gov.my
96,Tel:03-62032071
,Fax:03-62032498
,Email: bbp-shartamas.bomba@bomba.gov.my
97,Tel:03-77284444
,Fax:03-77299444
,Email: bbp_ttdi@bomba.gov.my
98,Tel:03-22824444
,Fax:03-22826344
,Email: bbp_pantai@bomba.gov.my 
99,Tel:03-92220336/40
,Fax:03-92220341
,Email: bbp_pudu.bomba@1govuc.gov.my 
100,Tel:03-91329490
,Fax:03-91300344
,Email: bbp_cheras@bomba.gov.my 
101,Tel:03-90584444
,Fax:03-90573344
,Email: bbp_sgbesi@bomba.gov.my
102,Tel:03-91312440
,Fax:03-91321706
,Email: bbp_btr@bomba.gov.my
103,Tel:03-89967457
,Fax:03-89968241
,Email: bbp_bktjalil@bomba.gov.my
104,Tel:03-
,Fax:03-
,Email: bbp_@bomba.gov.my
105,Tel:05-5474444 / 2596
,Fax:05-545 8714
,Email: bbp_ipoh@bomba.gov.my
106,Tel:05-4664444
,Fax:05-4661744
,Email: bbp-kampar.bomba@1govuc.gov.my 
107,Tel:05-7764444
,Fax:05-7774715
,Email: bbp_kkangsar@bomba.gov.my
108,Tel:05-3664444
,Fax:05-3669587
,Email: bbp_btgajah@bomba.gov.my
109,Tel:05-3594444
,Fax:05 – 3592176
,Email: bbp_gopeng@bomba.gov.my 
110,Tel:05-5982444
,Fax:05-5989045
,Email: bbp_sgsiput@bomba.gov.my 
111,Tel:05-3229549 / 9548
,Fax:05-321 6402
,Email: bbp_pputeh@bomba.gov.my
112,Tel:05-3574444/1123
,Fax:05-3575772
,Email: bbp_spgpulai@bomba.gov.my
113,Tel:055264444
,Fax:055268655
,Email: bbp_meru@bomba.gov.my 
114,Tel:05-8084444
,Fax:05 - 8052969
,Email: bbp_taiping@bomba.gov.my 
115,Tel:04-4778344
,Fax:04-4770544
,Email: bbp-pgklnhulu.bomba@1govuc.gov.my 
116,Tel:05-7911444
,Fax:05-7916109
,Email: bbp_gerik@bomba.gov.my 
117,Tel:05-7677444
,Fax:05-7679750
,Email: bbp-lenggong@bomba.gov.my 
118,Tel:05-8394444
,Fax:05-8396480
,Email: bbp-selama.bomba@1govuc.gov.my 
119,Tel:05-7164444
,Fax:05-7171609
,Email: bbp-ptbuntar.bomba@1govuc.gov.my 
120,Tel:05-8912322
,Fax:05-8913520
,Email: bbp-kamunting.bomba@1govuc.gov.my 
121,Tel:05-7277444
,Fax:05 – 727 6478
,Email: bbp_kkurau@bomba.gov.my
122,Tel:05-7215444
,Fax:05-7210331
,Email: bbp_bserai@bomba.gov.my
123,Tel:05-6884444
,Fax:05-6883287
,Email: bbp_manjung@bomba.gov.my
124,Tel:05-69144444
,Fax:05-6919010
,Email: bbp_sitiawan@bomba.gov.my 
125,Tel:05-6771444
,Fax:05-6777312
,Email: bbp-remis.bomba@1govuc.gov.my 
126,Tel:05-3771444
,Fax:05-3775257
,Email: bbp_parit@bomba.gov.my 
127,Tel:05-3712024
,Fax:05 – 371 1839
,Email: bbp_siskandar@bomba.gov.my
128,Tel:05-6851144
,Fax:05-6854680
,Email: bbp_pangkor@bomba.gov.my
129,Tel:05-4011444 / 5444
,Fax:05-4013579
,Email: bbp_tapah@bomba.gov.my
130,Tel:05-6221444
,Fax:05-6233387
,Email: bbp_tlkintan@bomba.gov.my
131,Tel:05-4596444
,Fax:05-4581346
,Email: bbp_tjgmalim@bomba.gov.my
132,Tel:05-4340444
,Fax:05-4348920
,Email: bbp-bidor@1govuc.gov.my 
133,Tel:05-4528444
,Fax:05-4526912
,Email: bbp_slimriver@bomba.gov.my 
134,Tel:05-6414444
,Fax:05-6416445
,Email: bbp_hutanmelintang@bomba.gov.my 
135,No. Tel    : 05 - 672 7444
, No. Faks : 05 - 672 5844
, Email :  
136,Tel:04-2825544 / 5744
,Fax:04-2810680
,Email: bbp_jlnperak@bomba.gov.my
137,Tel:04-8907335 / 0281
,Fax:04-890 4444
,Email: bbp_bgnjermal@bomba.gov.my
138,Tel:04-2614444
,Fax:04-262 4444
,Email: bbp_lebuhpantai@bomba.gov.my 
139,Tel:04-8270114 / 0127
,Fax:04-827 0146
,Email: bbp-pyterubong.bomba@1govuc.gov.my 
140,Tel:04-6434444 / 0445
,Fax:04-644 4444
,Email: bbp_bynbaru@bomba.gov.my  
141,Tel:04-8814152 / 4153
,Fax:04-881 4154 / 4416
,Email: bbp-tlkbahang.bomba@1govuc.gov.my  
142,Tel:04-8661360 / 8669444
,Fax:04-866 4444
,Email: bbp-blkpulau.bomba@1govuc.gov.my  
143,Tel:04-8661495 / 97
,Fax:04-866 1493
,Email: bbp-seripulau.bomba@1govuc.gov.my 
144,Tel:04-5373864
,Fax:04 - 5397236
,Email: bbp_bdrperda@bomba.gov.my
145,Tel:04-3984444 / 3970759
,Fax:04-397 1984 / 390 4444
,Email: bbp_perai@bomba.gov.my
146,Tel:04 - 538 4444 / 537 
,Fax:04-530 4444
,Email: bbp-bmertajam.bomba@1govuc.gov.my  
147,Tel:04-5931444 / 9544
,Fax:04-594 2920
,Email: bbp-nbgtebal.bomba@1govuc.gov.my 
148,Tel:04-5874797 / 4945
,Fax:04-587 2275
,Email: bbp_sgbakap@bomba.gov.my
149,Tel:04-3314444 / 3324444
,Fax:04-323 4444
,Email: bbp_bworth@bomba.gov.my  
150,Tel:04-5754444 / 5244
,Fax:04-574 4444
,Email: bbp-kbatas.bomba@1govuc.gov.my 
151,Tel:04-5794175
,Fax:04-579 4217
,Email: bbp-kualamuda.bomba@1govuc.my 
152,Tel:04-5734706 / 7254
,Fax:04-573 4810
,Email: bbp_tskgelugor@bomba.gov.my
153,Tel:04-7344444
,Fax:04-7328271
,Email: -
154,Tel:04-9171444
,Fax:04-9171830
,Email: -
155,Tel:04-7349307
,Fax:04-7328367
,Email: -
156,Tel:04-7867584
,Fax:04-7860439
,Email: -
157,Tel:04-9222350
,Fax:04-9221520
,Email: -
158,Tel:04-4214444
,Fax:04-4235586
,Email: rosdi-ismail.bomba@1govuc.gov.my 
159,Tel:04-4686444
,Fax:04-4681551
,Email: -
160,Tel:04-4695216
,Fax:04-4695461
,Email: -
161,Tel:04-4388444
,Fax:044389931
,Email: -
162,Tel:04-4656444
,Fax:04-4655061
,Email: -
163,Tel:04-4904444
,Fax:04-4953951
,Email: -
164,Tel:04-4034444
,Fax:04-4035254
,Email: -
165,Tel:04-4701444
,Fax:04-4707187
,Email: -
166,Tel:04-4077444
,Fax:04-4076526
,Email: -
167,Tel:04-9693004
,Fax:04-9666444
,Email: -
168,Tel:04-9664444
,Fax:04-9672744
,Email: -
169,Tel:04-9760544
,Fax:04-9774627
,Email: bbp_kangar@bomba.gov.my
170,Tel:04-9490094
,Fax:04-9492119
,Email: bbp_pdgbesar@bomba.gov.my
171,Tel:04-9864444
,Fax:04-9863901
,Email: bbp_arau@bomba.gov.my
172,Tel:04-9855332
,Fax:04-9855341
,Email: bbp-kualapls.bomba@1govuc.gov.my 
173,Tel:04-9805580
,Fax:04-9805592
,Email: @1govuc.gov.my 
174,Tel:097484444
,Fax:097462239
,Email: bbp-kotabharu.bomba@1govuc.gov.my 
175,Tel:09-7475444
,Fax:097475905
,Email: bbp_kotadarulnaim@bomba.gov.my
176,Tel:09-7744444
,Fax:09-7748298
,Email: bbp_pengkalanchepa@bomba.gov.my
177,Tel:09-7884444 
,Fax:09-7884406
,Email: bbp_ketereh@bomba.gov.my
178,Tel:09-7909444
,Fax:09-7904944
,Email: bbp-pasirmas.bomba@1govuc.gov.my 
179,Tel:09 - 795 0444
,Fax:09 - 795 2770
,Email: bbp_rantaupanjang@bomba.gov.my 
180,Tel:09-7257444
,Fax:09-7253699
,Email: bbp_tumpat@bomba.gov.my
181,Tel:09-7214444
,Fax:09-7215687
,Email: kb_pengkalankubor@bomba.gov.my 
182,Tel:09-7788444
,Fax:09-7783280
,Email: bbp_bachok@bomba.gov.my
183,Tel:097462699
,Fax:097473095
,Email: kb-tunjung.bomba@1govuc.gov.my 
184,Tel:09-9556444
,Fax:09-9553644
,Email: bbp_tanahmerah@bomba.gov.my
185,Tel:09-9440444
,Fax:09-9441452
,Email: bbp_jeli@bomba.gov.my
186,Tel:09-9752444
,Fax:09-9751821
,Email: bbp-machang.bomba@1govuc.gov.my 
187,Tel:09-7867444
,Fax:09-7865044
,Email: bbp-pasirputeh.bomba@1govuc.gov.my 
188,Tel:09-9666444
,Fax:09-966044
,Email: bbp_kualakrai@bomba.gov.my
189,Tel:09-9121444
,Fax:09-9123445
,Email: bbp-guamusang.bomba@1govuc.gov.my 
190,Tel:09-7643444
,Fax:09-7642444
,Email: bbp-guamusang.bomba@1govuc.gov.my 
191,Tel:09-6234444
,Fax:09-6315351/6241
,Email: bbp-kt.bomba@1govuc.gov.my 
192,Tel:09-6243105
,Fax:09-6312732/6349
,Email: bbp-jlnkota.bomba@1govuc.gov.my 
193,Tel:09-6183444
,Fax:09-6185276
,Email: bbp-marang.bomba@1govuc.gov.my 
194,Tel:09-6803544
,Fax:09-6803159/3644
,Email: bbp-wtapai.bomba@1govuc.gov.my 
195,Tel:09-6811444
,Fax:09-6813685
,Email: bbp-kberang.bomba@1govuc.gov.my 
196,Tel:09-6097444
,Fax:09-6097194/09-6097971
,Email: bbp-setiu.bomba@1govuc.gov.my 
197,Tel:09-6904444
,Fax:09-6903693 / 09-6903993
,Email: bbp-jerteh.bomba@1govuc.gov.my 
198,Tel:09-6956444
,Fax:09-6957024
,Email: bbp-besut.bomba@1govuc.gov.my 
199,Tel:09-8484444
,Fax:09-8453420
,Email: bbp-dungun.bomba@1govuc.gov.my 
200,Tel:09-8274444
,Fax:09-8277984/09-8272843
,Email: bbp-paka.bomba@1govuc.gov.my  
201,Tel:09-8594444
,Fax:09-8582157/09-8593502
,Email: bbp-kmn.bomba@1govuc.gov.my 
202,Tel:09-8598744
,Fax:09-8581559/09-8594902
,Email: bbp_chukai@bomba.gov.my 
203,Tel:09-8261444
,Fax:09-8263799
,Email: bbp-kerteh.bomba@1govuc.gov.my 
204,Tel:09-8221848
,Fax:09-8221966/1566
,Email: bbp-ambs.bomba@1govuc.gov.my 
205,Tel:09-8730444
,Fax:09-8733477
,Email: bbp-cheneh.bomba@1govuc.gov.my 
206,Tel:09-6621388
,Fax:
,Email: bbp-cheneh.bomba@1govuc.gov.my 
207,Tel:09-5130994
,Fax:09-5159444
,Email: bbp-kuantan.bomba@1govuc.gov.my 
208,Tel:09-5837977
,Fax:09-5837973
,Email: bbp-gebeng.bomba@1govuc.gov.my 
209,Tel:09-5739994
,Fax:09-5734993
,Email: bbp-imahkota.bomba@1govuc.gov.my 
210,Tel:09-5393704
,Fax:09-5393895
,Email: bbp-tmntas.bomba@1govuc.gov.my 
211,Tel:09-4146444
,Fax:09-4141466
,Email: bbp-rompin.bomba@1govuc.gov.my 
212,Tel:09-4268804
,Fax:09-4264195
,Email: bbp-peramu.bomba@1govuc.gov.my 
213,Tel:09-4224444
,Fax:09-4227109
,Email: bbp-pekan.bomba@1govuc.gov.my 
214,Tel:09-4522444
,Fax:09-4523685
,Email: bbp-mshah.bomba@1govuc.gov.my 
215,Tel:09-4181920
,Fax:09-4181921
,Email: bbp-nenasi.bomba@1govuc.gov.my 
216,Tel:09-2716999
,Fax:09-2716944
,Email: bbp-temerloh.bomba@1govuc.gov.my 
217,Tel:09-2224444
,Fax:09-2227515
,Email: bbp-bentong.bomba@1govuc.gov.my 
218,Tel:09-61013739
,Fax:03-61013644
,Email: bbp-genting.bomba@1govuc.gov.my 
219,Tel:09-4662277
,Fax:09-4664641
,Email: bbp-jengka.bomba@1govuc.gov.my 
220,Tel:09-4771444
,Fax:09-4771389
,Email: bbp-maran.bomba@1govuc.gov.my 
221,Tel:09-2311444
,Fax:09-2314541
,Email: bbp-karak.bomba@1govuc.gov.my 
222,Tel:09-2771444
,Fax:09-2774330
,Email: bbp-mentakab.bomba@1govuc.gov.my 
223,Tel:09-2554444
,Fax:09-2557824
,Email: bbp-triang.bomba@1govuc.gov.my 
224,Tel:09-2662444/3444
,Fax:09-2666819
,Email: bbp-jerantut.bomba@1govuc.gov.my 
225,Tel:09-2716999   
,Fax:09-2716994
,Email: bbp_temerloh@bomba.gov.my 
226,Tel:09-3554444
,Fax:09-3559308
,Email: bbp-raub.bomba@1govuc.gov.my 
227,Tel:09-3124444
,Fax:09-3121542
,Email: bbp-klipis.bomba@1govuc.gov.my 
228,Tel:05-4911003
,Fax:05-4914044
,Email: bbp-cameron.bomba@1govuc.gov.my 
229,Tel:082-313557
,Fax:082-312019
,Email: bbp_petrajaya@bomba.gov.my
230,Tel:082-241033
,Fax:082-238225
,Email: bbp-kuching.bomba@1govuc.gov.my 
231,Tel:082-241241
,Fax:082-248370
,Email: bbp-blintang.bomba@1govuc.gov.my 
232,Tel:082-734021
,Fax:082-734087
,Email: bbp_lundu@bomba.gov.my
233,Tel:082-763444
,Fax:082-762497
,Email: bbp-bau.bomba@1govuc.gov.my 
234,"Tel:082-367350,"
,Fax:082-367481
,Email: bbp-tabuanjaya.bomba@1govuc.gov.my 
235,Tel:082-673881
,Fax:082-673882
,Email: bbp_kotasamarahan@bomba.gov.my
236,Tel:082-864546
,Fax:082-862095
,Email: bbp_siburan@bomba.gov.my 
237,Tel:082-803680
,Fax:082-803821
,Email: bbp_simunjan@bomba.gov.my
238,Tel:082-874190
,Fax:082-873367 / 873012
,Email: bbp-serian.bomba@1govuc.gov.my 
239,Tel:083-322228
,Fax:083-325497
,Email: bbp_sriaman@bomba.gov.my
240,Tel:083-471591
,Fax:083-471548
,Email: bbp_betong@bomba.gov.my
241,Tel:083-436353
,Fax:083-437411
,Email: bbp_saratok@bomba.gov.my
242,Tel:084-654444
,Fax:084-656452
,Email: bbp-sarikei@1govuc.gov.my 
243,Tel:084-693444
,Fax:084-694344
,Email: bbp-bintangor.bomba@1govuc.gov.my 
244,Tel:084-752444
,Fax:084-752419
,Email: bbp-kanowit.bomba@1govuc.gov.my 
245,Tel:084-796444
,Fax:084-798569
,Email: bbp_kapit@bomba.gov.my
246,Tel:084-871444
,Fax:084-872544
,Email: -
247,Tel:084-330343
,Fax:084-339343
,Email: bbp-sibu.bomba@1govuc.gov.my 
248,Tel:084-346332
,Fax:084-347332
,Email: bbp_sungaimerah@bomba.gov.my
249,Tel:086-332222/311467
,Fax:086-335471
,Email: bbp-bintulu.bomba@1govuc.gov.my 
250,Tel:
,Fax:
,Email:  
251,Tel:086-311052
,Fax:086-333394
,Email:  bbp.tatau@bomba.gov.my
252,Tel:085-420991
,Fax:085-417059
,Email: bbp-miri.bomba@1govuc.gov.my 
253,Tel:085420972
,Fax:085-425973 / 085 - 424144( O )
,Email: bbp-lopeng.bomba@1govuc.gov.my 
254,Tel:085-755189
,Fax:085-755177
,Email: bbp-marudi.bomba@1govuc.gov.my 
255,Tel:085-211859
,Fax:085-214773
,Email: bbp_limbang@bomba.gov.my
256,Tel:085-284962
,Fax:085-284189
,Email: bbp-lawas.bomba@1govuc.gov.my 
257,Tel:085-284962
,Fax:085-284189
,Email: bbp-lawas.bomba@1govuc.gov.my 
258,Tel:087-592952
,Fax:087-428015
,Email: kbbtm_wplab@bomba.gov.my 
259,Tel:087-414444
,Fax:087-428022
,Email: kbbbj_wplab@bomba.gov.my 
260,Tel:087-464444
,Fax:087-468922
,Email: Kbbbl_wplab@bomba.gov.my  
261,Tel:088-210214
,Fax:088-223994
,Email: ketuabkk@bomba.gov.my 
262,Tel:088-422873
,Fax:088422713
,Email: bbp_lintas@bomba.gov.my
263,Tel:088-715446
,Fax:088-727934
,Email: ketuabppg@bomba.gov.my
264,Tel:088-793791
,Fax:088-792411
,Email: ketuabtuaran@bomba.gov.my 
265,Tel:088-611301
,Fax:088-613414
,Email: ketuabkudat.bomba@1govuc.gov.my 
266,Tel:088-878779
,Fax:088-875771
,Email: ketuabranau@bomba.gov.my 
267,Tel:088-976504
,Fax:088-977845
,Email: ketuabkb@bomba.gov.my 
268,Tel:088-662889
,Fax:088-662939
,Email: bbp-kmarudu.bomba@1govuc.gov.my 
269,Tel:087-821444 / 822444
,Fax:087-821721
,Email: bbp-sipitang.bomba@1govuc.gov.my 
270,Tel:087-212025
,Fax:087-214339
,Email: ketuabbft.bomba@1govuc.gov.my 
271,Tel:088-913521
,Fax:088-913609
,Email: ketuabpapar@bomba.gov.my 
272,Tel:087-884221
,Fax:087-884225
,Email: ketuabkp.bomba@1govuc.gov.my 
273,Tel:089-774444
,Fax:089-777444
,Email: ketuabtawau@bomba.gov.my 
274,Tel:089-853444
,Fax:089-853145
,Email: ketuabkunak@bomba.gov.my 
275,Tel:088-781699
,Fax:089-781548
,Email: ketuabspn@bomba.gov.my 
276,Tel:088-881443/ 884444
,Fax:089-884244
,Email: ketuabld.bomba@1govuc.gov.my 
277,Tel:089-214444/214144
,Fax:089-213196
,Email: ketuabsdk@bomba.gov.my 
278,Tel:089-562630/089-6310
,Fax:089-562632
,Email: ketuabkbtgn@bomba.gov.my 
279,Tel:087-331396
,Fax:087-336402
,Email: ketuabkgu.bomba@1govuc.gov.my 
280,Tel:087-774850
,Fax:087-774085
,Email: ketuabtbn.bomba@1govuc.gov.my 
281,Tel:087-735646
,Fax:087-735670
,Email: ketuabtenom@bomba.gov.my 
