,state,kerugian,diselamatkan
1,JOHOR,1087233784,2897768644
2,KEDAH,43337936.76,1009907739
3,KELANTAN,18954208,56362922
4,MELAKA,646800760,441269238
5,NEGERI SEMBILAN,266972101.5,788320573.5
6,PAHANG,43053307.64,1237058153
7,PERAK,57111055.76,10363753172
8,PERLIS,5770220,32534180
9,PULAU PINANG,85223155.5,1005433216
10,SABAH,802533279.9,323008925.1
11,SARAWAK,162722350.7,1652592748
12,SELANGOR,1005472662,6368500399
13,TERENGGANU,119492369.2,2601079507
14,W.P. KUALA LUMPUR,51824436.68,151863357.1
15,W.P. LABUAN,497330,4060670
16,W.P. PUTRAJAYA,833175,520973125
